{
    "name": "MeetR",
    "loginRequests": [
        {
            "responseType": "header",
            "requestType":"login",
            "userType": "admin",
            "url": "localhost:3432/login",
            "headers": [{
                "name": "Authorization",
                "value": "#$23232323245dfsadsghasdjas"
            },
            {
                "name": "Content-Length",
                "value": 2048
            }]
        }
    ],
    "requests": [
        {
            "url": "localhost:3432/test",
            "headers": [{
                "name": "Authorization",
                "value": "#$23232323245dfsadsghasdjas"
            },
            {
                "name": "Content-Length",
                "value": 2048
            }]
        }
    ],
    "roles": [
        "admin",
        "user",
        "teacher"
    ]
}